In the Dark Aisles of Our Capital (Part I)
…
For sex, all we need is renaming factors, which can be easily done with the fct_recode. Alternatively, you can use base R’s recode function to do the same.

Code

dc21$sex = fct_recode(dc21$sex, Male = "M", Female = "F")

For offense, we need to have some extra considerations. Noticed that most offenses categories are made up of two components: a two-digit number and a letter. These two components respectively represent the first group and second group of offenses. For instance, 13 represents assaults, and the A, B, C that come after 13 specify the type and degree of assaults so that 13A represents aggravated assaults while 13B represents simple assaults. This classification approach has important legal and policy meanings. We can also utilize this classification approach to reduce our workloads.

Code

dc21 %>%
  count(offense) 

# A tibble: 35 × 2
   offense     n
   <chr>   <int>
 1 09A        36
 2 100        18
 3 11A        22
 4 11C         5
 5 11D        52
 6 120       275
 7 13A       347
 8 13B      1771
 9 13C       336
10 200         1
# … with 25 more rows
…
